<svg width="48" height="48" viewBox="0 0 48 48" fill="none" xmlns="http://www.w3.org/2000/svg">
<path d="M24 34V6" stroke="#E60100" stroke-width="2" stroke-linecap="round" stroke-linejoin="round"/>
<path d="M24 20L36 13L24 6" stroke="#E60100" stroke-width="2" stroke-linecap="round" stroke-linejoin="round"/>
<path d="M18 28.41C11.014 29.372 6 31.954 6 35C6 38.866 14.058 42 24 42C33.942 42 42 38.866 42 35C42 31.954 36.986 29.372 30 28.41" stroke="#E60100" stroke-width="2" stroke-linecap="round" stroke-linejoin="round"/>
</svg>
